<?xml version="1.0" encoding="UTF-8" standalone="no"?>
<!-- Generator: Adobe Illustrator 16.0.0, SVG Export Plug-In . SVG Version: 6.00 Build 0)  -->

<svg
   xmlns:dc="http://purl.org/dc/elements/1.1/"
   xmlns:cc="http://creativecommons.org/ns#"
   xmlns:rdf="http://www.w3.org/1999/02/22-rdf-syntax-ns#"
   xmlns:svg="http://www.w3.org/2000/svg"
   xmlns="http://www.w3.org/2000/svg"
   xmlns:sodipodi="http://sodipodi.sourceforge.net/DTD/sodipodi-0.dtd"
   xmlns:inkscape="http://www.inkscape.org/namespaces/inkscape"
   version="1.1"
   id="Layer_1"
   x="0px"
   y="0px"
   width="64px"
   height="64px"
   viewBox="0 0 64 64"
   enable-background="new 0 0 64 64"
   xml:space="preserve"
   sodipodi:docname="pin.svg"
   inkscape:version="0.92.4 5da689c313, 2019-01-14"><metadata
   id="metadata13"><rdf:RDF><cc:Work
       rdf:about=""><dc:format>image/svg+xml</dc:format><dc:type
         rdf:resource="http://purl.org/dc/dcmitype/StillImage" /></cc:Work></rdf:RDF></metadata><defs
   id="defs11">
	

		
	</defs><sodipodi:namedview
   pagecolor="#ffffff"
   bordercolor="#666666"
   borderopacity="1"
   objecttolerance="10"
   gridtolerance="10"
   guidetolerance="10"
   inkscape:pageopacity="0"
   inkscape:pageshadow="2"
   inkscape:window-width="1918"
   inkscape:window-height="1015"
   id="namedview9"
   showgrid="false"
   inkscape:zoom="10.429825"
   inkscape:cx="39.537961"
   inkscape:cy="27.387409"
   inkscape:window-x="0"
   inkscape:window-y="21"
   inkscape:window-maximized="1"
   inkscape:current-layer="Layer_1" />
<g
   id="g4">
			<path
   d="M 55,32 H 20 V 18 c 0,-6.627 5.373,-12 12,-12 6.627,0 12,5.373 12,12 0,1.657 1.343,3 3,3 1.657,0 3,-1.343 3,-3 C 50,8.059 41.941,0 32,0 22.059,0 14,8.059 14,18 V 32 H 9 c -1.657,0 -3,1.343 -3,3 v 26 c 0,1.657 1.343,3 3,3 h 46 c 1.657,0 3,-1.343 3,-3 V 35 c 0,-1.657 -1.343,-3 -3,-3 z M 35,49.168 V 55 c 0,1.657 -1.343,3 -3,3 -1.657,0 -3,-1.343 -3,-3 V 49.168 C 27.214,48.129 26,46.215 26,44 c 0,-3.314 2.686,-6 6,-6 3.314,0 6,2.686 6,6 0,2.215 -1.214,4.129 -3,5.168 z"
   id="path2"
   inkscape:connector-curvature="0" />
		</g>
<rect
   style="opacity:1;fill:#000000;stroke:#000000;stroke-width:1;stroke-miterlimit:4;stroke-dasharray:none"
   id="rect20"
   width="22.052143"
   height="22.819176"
   x="23.010933"
   y="36.386883" /></svg>